[
{"actual_price": "2190.0", "sku": "TB-146Raspberry", "store_id": "597c264770adb9862baaa16a", "discounted_price": "2190.0", "gender": "female", "created_at": "2017-07-31 13:57:57", "name": "Half Dolman Top", "url": "http://www.azurefashion.com/products/half-dolman-top/TB-146Raspberry", "images": ["http://www.azurefashion.com/system/product_images/1424/page_ss/P%20Squares%20B%20F2_Fotor.jpg?1495697591", "http://www.azurefashion.com/system/product_images/1425/page_ss/P%20Squares%20B%20B_Fotor.jpg?1495697699"], "category": "PRODUCTS", "description": "You're just going to LOVE this comfy handmade cotton khaadi top in a loose, summer friendly design.Gentle Wash, Dry in Shade"},
{"actual_price": "2690.0", "sku": "TU-157", "store_id": "597c264770adb9862baaa16a", "discounted_price": "2690.0", "gender": "female", "created_at": "2017-07-31 13:58:02", "name": "Dolman kurta", "url": "http://www.azurefashion.com/products/dolman-kurta/TU-157", "images": ["http://www.azurefashion.com/system/product_images/1343/page_ss/Indigo%20Grid%20F.jpg?1493288677", "http://www.azurefashion.com/system/product_images/1344/page_ss/Indigo%20Grid%20F2.jpg?1493288709", "http://www.azurefashion.com/system/product_images/1345/page_ss/Indigo%20Grid%20S.jpg?1493288749", "http://www.azurefashion.com/system/product_images/1346/page_ss/Indgo%20Grid%20B.jpg?1493288780"], "category": "PRODUCTS", "description": "Super trendy caftan style kurta. \u00a0Looks great with parallel pants. \u00a0Wear to office or everyday.Hand dabu-printed with natural indigo dye. \u00a0Chanderi. \u00a0As this product is hand printed, there will be some irregularities, and this is considered normal.We recommend that you dry clean the first time and hand wash gently every subsequent time. \u00a0Dry in shade."},
{"actual_price": "1990.0", "sku": "TB-142", "store_id": "597c264770adb9862baaa16a", "discounted_price": "1990.0", "gender": "female", "created_at": "2017-07-31 13:58:04", "name": "Dolman Top", "url": "http://www.azurefashion.com/products/dolman-top/TB-142", "images": ["http://www.azurefashion.com/system/product_images/1339/page_ss/Indigo%20Circles%20f.jpg?1493288546", "http://www.azurefashion.com/system/product_images/1340/page_ss/Indigo%20cir%20s2.jpg?1493288577", "http://www.azurefashion.com/system/product_images/1341/page_ss/Indigo%20Cir%20S1.jpg?1493288613", "http://www.azurefashion.com/system/product_images/1342/page_ss/indigo%20cir%20b.jpg?1493288636"], "category": "PRODUCTS", "description": "Super cool dolman sleeve top made of chanderi. \u00a0Hand dabu printed chanderi with indigo dye.Since this product is hand printed, there will be some irregularities, this is normal.We recommend that you dry clean the first time. \u00a0Hand wash separately each subsequent time. \u00a0This product has been enzyme washed in order to minimize any rub off that is normal with indigo dyes."},
{"actual_price": "2290.0", "sku": "DS-76Raspberry", "store_id": "597c264770adb9862baaa16a", "discounted_price": "2290.0", "gender": "female", "created_at": "2017-07-31 13:58:09", "name": "Fish Tail Dress", "url": "http://www.azurefashion.com/products/fish-tail-dress/DS-76Raspberry", "images": ["http://www.azurefashion.com/system/product_images/1408/page_ss/Rsquares%20Dress%20F_Fotor.jpg?1493791046", "http://www.azurefashion.com/system/product_images/1409/page_ss/Rsquares%20DRess%20F2_Fotor.jpg?1493791097", "http://www.azurefashion.com/system/product_images/1410/page_ss/Rsquares%20Dress%20S1_Fotor.jpg?1493791151", "http://www.azurefashion.com/system/product_images/1411/page_ss/Rsquares%20Dress%20S2_Fotor.jpg?1493791215"], "category": "PRODUCTS", "description": "A handwoven khaadi in soothing shades of pink and green. \u00a0The dress is just great for warmer climates. \u00a0Loosely cut, super comfy, with front pockets.Body: 100% khaadi cottonGentle Wash, Dry in Shade*The fabric used in this garment is hand woven. \u00a0As such, there will be slight imperfections and irregularities - this is considered normal"},
{"actual_price": "2590.0", "sku": "TU-159Raspberry", "store_id": "597c264770adb9862baaa16a", "discounted_price": "2590.0", "gender": "female", "created_at": "2017-07-31 13:58:13", "name": "Tie Sleeve Kurta", "url": "http://www.azurefashion.com/products/tie-sleeve-kurta/TU-159Raspberry", "images": ["http://www.azurefashion.com/system/product_images/1414/page_ss/Rsquares%20K%20R_Fotor.jpg?1494051200", "http://www.azurefashion.com/system/product_images/1415/page_ss/Rsquares%20K%20F_Fotor.jpg?1494051643", "http://www.azurefashion.com/system/product_images/1416/page_ss/Rsquares%20K%20B_Fotor.jpg?1494051693"], "category": "PRODUCTS", "description": "Hand wash"},
{"actual_price": "3200.0", "sku": "TB-137Pink", "store_id": "597c264770adb9862baaa16a", "discounted_price": "3200.0", "gender": "female", "created_at": "2017-07-31 13:58:17", "name": "Vneck OS Top", "url": "http://www.azurefashion.com/products/vneck-os-top/TB-137Pink", "images": ["http://www.azurefashion.com/system/product_images/1417/page_ss/Pink%20Silk%20C_Fotor.jpg?1494051952", "http://www.azurefashion.com/system/product_images/1418/page_ss/Pink%20Silk%20F2_Fotor.jpg?1494052054", "http://www.azurefashion.com/system/product_images/1419/page_ss/Pin%20Silk%20S_Fotor.jpg?1494052405", "http://www.azurefashion.com/system/product_images/1420/page_ss/Pink%20Silk%20B_Fotor.jpg?1494052638"], "category": "PRODUCTS", "description": "Our super comfy \"free size\" \u00a0top is an absolute must have! \u00a0Throw on over a pair of jeans or trousers and you're ready for any summer evening do!100% Crepe SilkDry Clean Only"},
{"actual_price": "1990.0", "sku": "TU-153BG-DD", "store_id": "597c264770adb9862baaa16a", "discounted_price": "1990.0", "gender": "female", "created_at": "2017-07-31 13:58:20", "name": "Dip Dye Sqn Kurta", "url": "http://www.azurefashion.com/products/dip-dye-sqn-kurta/TU-153BG-DD", "images": ["http://www.azurefashion.com/system/product_images/1421/page_ss/BlueDD%20K%20F_Fotor.jpg?1494053870", "http://www.azurefashion.com/system/product_images/1422/page_ss/BlueDD%20K%20B_Fotor.jpg?1494053976", "http://www.azurefashion.com/system/product_images/1423/page_ss/BlueDD%20K%20S_Fotor.jpg?1494054137"], "category": "PRODUCTS", "description": "Elegant straight fit kurta. \u00a0Hand dip dyed. \u00a0Elegant metal sequin detailing around the neckline. \u00a0Side slits for comfort.100% cottonHand Wash gentle; do not wring; dry in shade and inside out"},
{"actual_price": "2900.0", "sku": "TU-156", "store_id": "597c264770adb9862baaa16a", "discounted_price": "2900.0", "gender": "female", "created_at": "2017-07-31 13:58:28", "name": "Peacock Lace Kurta", "url": "http://www.azurefashion.com/products/peacock-lace-kurta/TU-156", "images": ["http://www.azurefashion.com/system/product_images/1360/page_ss/Peacock%20Lace%20K%20F.jpg?1493290427", "http://www.azurefashion.com/system/product_images/1361/page_ss/Peacock%20Lace%20k%20S.jpg?1493290453", "http://www.azurefashion.com/system/product_images/1362/page_ss/Peacock%20lace%20k%20b.jpg?1493290491"], "category": "PRODUCTS", "description": "Ultra feminine kurta - slimmer at the chest and gets wider to the bottom hem. \u00a0Edged with beautiful cotton lace. \u00a0Wooden buttons running down the front.Body: 100% Khaadi CottonGentle Hand Wash."},
{"actual_price": "2590.0", "sku": "TU-158", "store_id": "597c264770adb9862baaa16a", "discounted_price": "2590.0", "gender": "female", "created_at": "2017-07-31 13:58:33", "name": "Khaadi Latte Kurta", "url": "http://www.azurefashion.com/products/khaadi-latte-kurta/TU-158", "images": ["http://www.azurefashion.com/system/product_images/1356/page_ss/Latte%20squares%20K%20f.jpg?1493290009", "http://www.azurefashion.com/system/product_images/1357/page_ss/Latte%20Squares%20K%20F2.jpg?1493290040", "http://www.azurefashion.com/system/product_images/1358/page_ss/Latte%20Squares%20K%20S.jpg?1493290060", "http://www.azurefashion.com/system/product_images/1359/page_ss/Latte%20Squares%20K%20B.jpg?1493290081"], "category": "PRODUCTS", "description": "A \"go to\" kurta! \u00a0Made of super soft khaadi, this stylish kurta will be one of your closet favorites! \u00a0Wear it with off white parallels as a great day time basic. \u00a0Convenient hidden pockets. \u00a0Side slits.100% khaadi cottonHand wash gently, dry in the shade"},
{"actual_price": "2290.0", "sku": "DSD-28P", "store_id": "597c264770adb9862baaa16a", "discounted_price": "2290.0", "gender": "female", "created_at": "2017-07-31 13:58:35", "name": "Caftan Dress", "url": "http://www.azurefashion.com/products/caftan-dress/DSD-28P", "images": ["http://www.azurefashion.com/system/product_images/1352/page_ss/Pink%20Caftan%20C.jpg?1493289725", "http://www.azurefashion.com/system/product_images/1353/page_ss/Pink%20caftan%20F.jpg?1493289761", "http://www.azurefashion.com/system/product_images/1354/page_ss/PInk%20Caftan%20S.jpg?1493289787", "http://www.azurefashion.com/system/product_images/1355/page_ss/Pink%20Caftan%20B.jpg?1493289827"], "category": "PRODUCTS", "description": "A definite \"must have\"... this caftan dress is super trendy and guaranteed to keep you cool. \u00a0It's made of an ultra light weight cotton. \u00a0Comes with its own matching slip.Wear as daily wear or to an occassion with a bit of jewelry.100% CottonHand wash gently in cool water; dry in shade"},
{"actual_price": "1790.0", "sku": "TT-113G", "store_id": "597c264770adb9862baaa16a", "discounted_price": "1790.0", "gender": "female", "created_at": "2017-07-31 13:58:37", "name": "Bishop Tunic", "url": "http://www.azurefashion.com/products/bishop-tunic/TT-113G", "images": ["http://www.azurefashion.com/system/product_images/1347/page_ss/Bishop%20c.jpg?1493289576", "http://www.azurefashion.com/system/product_images/1348/page_ss/Bishop%20Full.jpg?1493289597", "http://www.azurefashion.com/system/product_images/1349/page_ss/Bishop%20S.jpg?1493289625", "http://www.azurefashion.com/system/product_images/1350/page_ss/Bishop%20B.jpg?1493289650", "http://www.azurefashion.com/system/product_images/1351/page_ss/Bishop%20B.jpg?1493289695"], "category": "PRODUCTS", "description": "Probably one of the most versatily tunics you can find.. stylish with cool bishop sleeves. \u00a0Looks great with jeans, trousers, or shorts.Hand wash gently, dry in shade100% khaadi cotton"},
{"actual_price": "2500.0", "sku": "DS-80Y", "store_id": "597c264770adb9862baaa16a", "discounted_price": "2500.0", "gender": "female", "created_at": "2017-07-31 13:58:41", "name": "Embr Sun Dress", "url": "http://www.azurefashion.com/products/embr-sun-dress/DS-80Y", "images": ["http://www.azurefashion.com/system/product_images/1335/page_ss/Yellow%20D%20F1.jpg?1493288408", "http://www.azurefashion.com/system/product_images/1336/page_ss/Yellow%20D%20F2.jpg?1493288429", "http://www.azurefashion.com/system/product_images/1337/page_ss/Yellow%20D%20S.jpg?1493288465", "http://www.azurefashion.com/system/product_images/1338/page_ss/Yellow%20D%20B.jpg?1493288487"], "category": "PRODUCTS", "description": "Beautifully embroiderd sleeveless dress. \u00a0Comes with its own sandalwood colored slip. \u00a0Great for daily wear.100% khaadi cottonHand wash gently, dry in shade"},
{"actual_price": "1890.0", "sku": "TB-140", "store_id": "597c264770adb9862baaa16a", "discounted_price": "1890.0", "gender": "female", "created_at": "2017-07-31 13:58:45", "name": "Peacock Lace Top", "url": "http://www.azurefashion.com/products/peacock-lace-top/TB-140", "images": ["http://www.azurefashion.com/system/product_images/1364/page_ss/Peacock%20B%20S1.jpg?1493290729", "http://www.azurefashion.com/system/product_images/1365/page_ss/Peacock%20B%20S2.jpg?1493290766", "http://www.azurefashion.com/system/product_images/1366/page_ss/Peacock%20B%20B.jpg?1493290791", "http://www.azurefashion.com/system/product_images/1412/page_ss/Peacock%20Lace%20B%20F_Fotor.jpg?1493794273"], "category": "PRODUCTS", "description": "You're going to love this dolman sleeved top. \u00a0It's made of a lovely soft khaadi cotton, cut generously, and edged with the a gorgeous cotton lace! \u00a0Looks great on trousers or shorts.Body: 100% khaadi cottonGentle wash in cold water, dry in shade"},
{"actual_price": "2290.0", "sku": "TB-145-O", "store_id": "597c264770adb9862baaa16a", "discounted_price": "2290.0", "gender": "female", "created_at": "2017-07-31 13:58:49", "name": "Bell sleeve top", "url": "http://www.azurefashion.com/products/bell-sleeve-top/TB-145-O", "images": ["http://www.azurefashion.com/system/product_images/1397/page_ss/Orange%20Bell%20F_Fotor.jpg?1493790160", "http://www.azurefashion.com/system/product_images/1398/page_ss/Orange%20Bell%20F2_Fotor.jpg?1493790174", "http://www.azurefashion.com/system/product_images/1399/page_ss/Orange%20Bell%20L_Fotor.jpg?1493790202", "http://www.azurefashion.com/system/product_images/1400/page_ss/Orange%20Bell%20R_Fotor.jpg?1493790229", "http://www.azurefashion.com/system/product_images/1401/page_ss/Orange%20Bell%20Detail_Fotor.jpg?1493790251", "http://www.azurefashion.com/system/product_images/1402/page_ss/Orange%20Bell%20B_Fotor.jpg?1493790268"], "category": "PRODUCTS", "description": "Cool bell sleeve top with embroidery on the bells!100% khaadi cottonGentle Wash, Dry in Shade"},
{"actual_price": "1590.0", "sku": "TB-135", "store_id": "597c264770adb9862baaa16a", "discounted_price": "1590.0", "gender": "female", "created_at": "2017-07-31 13:58:53", "name": "Fold front Top", "url": "http://www.azurefashion.com/products/fold-front-top/TB-135", "images": ["http://www.azurefashion.com/system/product_images/1371/page_ss/Fold%20front%20F.jpg?1493291359", "http://www.azurefashion.com/system/product_images/1372/page_ss/Fold%20Front%20F2.jpg?1493291383", "http://www.azurefashion.com/system/product_images/1373/page_ss/Fold%20Front%20L.jpg?1493291403", "http://www.azurefashion.com/system/product_images/1374/page_ss/Fold%20Front%20B.jpg?1493291429", "http://www.azurefashion.com/system/product_images/1375/page_ss/Fold%20front%20R.jpg?1493291456"], "category": "PRODUCTS", "description": "HAND WASH"},
{"actual_price": "2790.0", "sku": "TT-100", "store_id": "597c264770adb9862baaa16a", "discounted_price": "2790.0", "gender": "female", "created_at": "2017-07-31 13:58:56", "name": "Split Front Tunic", "url": "http://www.azurefashion.com/products/split-front-tunic/TT-100", "images": ["http://www.azurefashion.com/system/product_images/1381/page_ss/IMG-20170427-WA0007.jpg?1493294068", "http://www.azurefashion.com/system/product_images/1382/page_ss/IMG-20170427-WA0007.jpg?1493294084"], "category": "PRODUCTS", "description": "Well draped assymetrical top with folds in the front and an off-centered peaked hemline. \u00a0Attractive charcoal stripes. \u00a0Cool exposed zip in the back.Hand Wash Gentle; dry in shade100% Khaadi cotton"},
{"actual_price": "2390.0", "sku": "DS-83", "store_id": "597c264770adb9862baaa16a", "discounted_price": "2390.0", "gender": "female", "created_at": "2017-07-31 13:59:00", "name": "2pocket Tunic dress", "url": "http://www.azurefashion.com/products/2pocket-tunic-dress/DS-83", "images": ["http://www.azurefashion.com/system/product_images/1384/page_ss/BlueStripe%20Dress%20S_Fotor.jpg?1493788695", "http://www.azurefashion.com/system/product_images/1385/page_ss/BluStripe%20Dress%20C_Fotor.jpg?1493788718", "http://www.azurefashion.com/system/product_images/1386/page_ss/BluStripe%20Dress%20F_Fotor.jpg?1493788735", "http://www.azurefashion.com/system/product_images/1387/page_ss/BluStrp%20Dress%20B_Fotor.jpg?1493788756"], "category": "PRODUCTS", "description": "Absolutely perfect for a summer holiday! \u00a0It's made of khaadi cotton, light weight, but not at all \"see through\". \u00a0Generously cut with convenient front pockets. \u00a0Side slits to the knee for comfort. \u00a0Youthis dress in your closet!100% Cotton KhaadiGentle Wash, dry in shade*The fabric in this garment was handwoven. \u00a0As such, might be some slight imperfections and color variations - this is considered normal."},
{"actual_price": "2490.0", "sku": "DS-84", "store_id": "597c264770adb9862baaa16a", "discounted_price": "2490.0", "gender": "female", "created_at": "2017-07-31 13:59:04", "name": "Button back shirt dress", "url": "http://www.azurefashion.com/products/button-back-shirt-dress/DS-84", "images": ["http://www.azurefashion.com/system/product_images/1389/page_ss/OJ%20Stripes%20L_Fotor.jpg?1493789026", "http://www.azurefashion.com/system/product_images/1390/page_ss/OJ%20Stripes%20R_Fotor.jpg?1493789059", "http://www.azurefashion.com/system/product_images/1391/page_ss/OJ%20Stripes%20Slvs_Fotor.jpg?1493789080", "http://www.azurefashion.com/system/product_images/1392/page_ss/OJ%20Stripes%20B_Fotor.jpg?1493789104", "http://www.azurefashion.com/system/product_images/1393/page_ss/OJ%20Stripes%20F_Fotor.jpg?1493789703", "http://www.azurefashion.com/system/product_images/1413/page_ss/OJ%20Stripe%20Dress%20C.jpg?1494050470"], "category": "PRODUCTS", "description": "\"Shirt Dress\" re-defined. \u00a0No belt here. \u00a0But super cute in an oversized boyfriend shirt. \u00a0Front pockets. \u00a0There are buttons that run down the back that make it super special. \u00a0the buttons in the back are non-functional and will not open out. \u00a0Fully lined.100% khaadi cottonGentle Wash, Dry in Shade"},
{"actual_price": "2900.0", "sku": "DS-77", "store_id": "597c264770adb9862baaa16a", "discounted_price": "2900.0", "gender": "female", "created_at": "2017-07-31 13:59:08", "name": "Peacock Lace Dress", "url": "http://www.azurefashion.com/products/peacock-lace-dress/DS-77", "images": ["http://www.azurefashion.com/system/product_images/1367/page_ss/Peacock%20Lace%20f1.jpg?1493291010", "http://www.azurefashion.com/system/product_images/1368/page_ss/Peacock%20Lace%20f2.jpg?1493291039", "http://www.azurefashion.com/system/product_images/1369/page_ss/Peacock%20Lace%20L.jpg?1493291080", "http://www.azurefashion.com/system/product_images/1370/page_ss/Peacock%20Lace%20R.jpg?1493291110", "http://www.azurefashion.com/system/product_images/1383/page_ss/Peacock%20Lace%20Dress%20B_Fotor.jpg?1493788649"], "category": "PRODUCTS", "description": "One of our top sellers! \u00a0All the comfort without skiming on the style! \u00a0We're loving the sleeves (inspired by marathon watching The Tudors) which are funnel shaped and edged in the prettiest cotton lace. \u00a0Pockets add a little extra... fully lined for your modesty!Body: 100% khaadi cotton; Lining: 100% cotton"},
{"actual_price": "1790.0", "sku": "BP-11White", "store_id": "597c264770adb9862baaa16a", "discounted_price": "1790.0", "gender": "female", "created_at": "2017-07-31 13:59:15", "name": "Kathy Pants", "url": "http://www.azurefashion.com/products/kathy-pants/BP-11White", "images": ["http://www.azurefashion.com/system/product_images/804/page_ss/P%20White%20Kathy%20F.jpg?1411840129", "http://www.azurefashion.com/system/product_images/805/page_ss/P%20White%20Kathy%20B.jpg?1411840189"], "category": "PRODUCTS", "description": "Flat Front, Wide Leg Palazzos. \u00a0Incredibly stylish and look superb with a slim fitted tucked in top or with a longer tunic/ kurti type top. \u00a0Elastic back for a perfect fit. \u00a0Hidden side zip. \u00a0Fully Lined (so no panty show-through!!)Regular Wash, Line Dry in the Shade"},
{"actual_price": "2590.0", "sku": "BP5", "store_id": "597c264770adb9862baaa16a", "discounted_price": "2590.0", "gender": "female", "created_at": "2017-07-31 13:59:19", "name": "Hampton Pants", "url": "http://www.azurefashion.com/products/hampton-pants/BP5", "images": [], "category": "PRODUCTS", "description": "Seriously classy linen pants! \u00a0Zip fly. \u00a0Perfect amount of wideness in the leg. \u00a0Looks great with long OR short tops. \u00a0The white version is fully lined. \u00a0Great during the day or night. \u00a0Can be casual or dressy! \u00a0You've got to have this in your wardrobe!100% LinenGentle Wash, Dry Flat, Iron"},
{"actual_price": "1990.0", "sku": "BSh2", "store_id": "597c264770adb9862baaa16a", "discounted_price": "1990.0", "gender": "female", "created_at": "2017-07-31 13:59:23", "name": "Hampton Shorts", "url": "http://www.azurefashion.com/products/hampton-shorts/BSh2", "images": ["http://www.azurefashion.com/system/product_images/1329/page_ss/white%20linen%20shorts%20f.jpg?1473243239", "http://www.azurefashion.com/system/product_images/1330/page_ss/white%20linen%20shorts%20back.jpg?1473243343", "http://www.azurefashion.com/system/product_images/1332/page_ss/blush%20off%20shoulder%20f.jpg?1473243437"], "category": "PRODUCTS", "description": "Super versatile linen shorts - look great in the city or on the beach! \u00a0A very trendy length - just above the knee. \u00a0Zip Fly. \u00a0The white version is fully lined.100% LinenRegular Wash, Line Dry, Firm Iron"},
{"actual_price": "1990.0", "sku": "TU-150", "store_id": "597c264770adb9862baaa16a", "discounted_price": "1990.0", "gender": "female", "created_at": "2017-07-31 13:59:26", "name": "Fish Hem kurta", "url": "http://www.azurefashion.com/products/fish-hem-kurta/TU-150", "images": ["http://www.azurefashion.com/system/product_images/1376/page_ss/Red%20F.jpg?1493291619", "http://www.azurefashion.com/system/product_images/1378/page_ss/Red%20S.jpg?1493291666", "http://www.azurefashion.com/system/product_images/1379/page_ss/Red%20B.jpg?1493291693"], "category": "PRODUCTS", "description": "Curvy hemline, superbly cut body, and vibrant color make this kurta a \"must have\"! \u00a0The vibrant red in set off with a subtle grey underside that flashes as you walk. \u00a0Matte silver buttons down the front.100% CottonGentle Wash, Dry in Shade"},
{"actual_price": "1990.0", "sku": "DS-78", "store_id": "597c264770adb9862baaa16a", "discounted_price": "1990.0", "gender": "female", "created_at": "2017-07-31 13:59:29", "name": "One shoulder dress", "url": "http://www.azurefashion.com/products/one-shoulder-dress/DS-78", "images": ["http://www.azurefashion.com/system/product_images/1394/page_ss/RedStripe%20Dress%20F_Fotor.jpg?1493789954", "http://www.azurefashion.com/system/product_images/1395/page_ss/RedStripe%20Dress%20B_Fotor.jpg?1493789996", "http://www.azurefashion.com/system/product_images/1396/page_ss/RedStripe%20Dress%20L_Fotor.jpg?1493790038"], "category": "PRODUCTS", "description": "The hottest trend this season - one shoulder! \u00a0Super flattering dress - you'll love it! \u00a0Touch of elastic on the no-shoulder side to keep the dress snuggly fit to you.100% khaadi cottonGentle wash, dry in shade"},
{"actual_price": "1690.0", "sku": "BP-11Navy", "store_id": "597c264770adb9862baaa16a", "discounted_price": "1690.0", "gender": "female", "created_at": "2017-07-31 13:59:33", "name": "Kathy Pants", "url": "http://www.azurefashion.com/products/kathy-pants-1/BP-11Navy", "images": ["http://www.azurefashion.com/system/product_images/801/page_ss/P%20Blue%20Katy%20F2.jpg?1411839771", "http://www.azurefashion.com/system/product_images/802/page_ss/P%20Blue%20Kathy%20Full.jpg?1411839824", "http://www.azurefashion.com/system/product_images/803/page_ss/P%20Blue%20Kathy%20Back.jpg?1411839871"], "category": "PRODUCTS", "description": "Flat Front, Wide Leg Palazzos. \u00a0Incredibly stylish and look superb with a slim fitted tucked in top or with a longer tunic/ kurti type top. \u00a0Elastic back for a perfect fit. \u00a0Hidden side zip.Regular Wash, Line Dry in the Shade"},
{"actual_price": "1690.0", "sku": "BC-9T", "store_id": "597c264770adb9862baaa16a", "discounted_price": "1690.0", "gender": "female", "created_at": "2017-07-31 13:59:37", "name": "Crop Straight Leg Pant", "url": "http://www.azurefashion.com/products/crop-straight-leg-pant-1/BC-9T", "images": ["http://www.azurefashion.com/system/product_images/728/page_ss/1_bc9tanfront.jpg?1399389603", "http://www.azurefashion.com/system/product_images/729/page_ss/1_bc9tanback.jpg?1399389664"], "category": "PRODUCTS", "description": "Classic summer pants. \u00a0Slim through the thigh. \u00a0A bit more cropped and with a wider leg opening than our cigarette pants - for a more casual, summery look.Cotton-LycraRegular Wash"},
{"actual_price": "1690.0", "sku": "BC-9W", "store_id": "597c264770adb9862baaa16a", "discounted_price": "1690.0", "gender": "female", "created_at": "2017-07-31 13:59:43", "name": "Crop Straight Leg Pant", "url": "http://www.azurefashion.com/products/crop-straight-leg-pant-2/BC-9W", "images": ["http://www.azurefashion.com/system/product_images/730/page_ss/1_BC9WhtFrnt.jpg?1399446613", "http://www.azurefashion.com/system/product_images/731/page_ss/1_BC9WhiteBk.jpg?1399446677"], "category": "PRODUCTS", "description": "Classic summer pants. \u00a0Slim through the thigh. \u00a0A bit more cropped and with a wider leg opening than our cigarette pants - for a more casual, summery look.Cotton-LycraRegular Wash"},
{"actual_price": "1590.0", "sku": "BC7-Grey", "store_id": "597c264770adb9862baaa16a", "discounted_price": "1590.0", "gender": "female", "created_at": "2017-07-31 13:59:46", "name": "Cigarette Pants", "url": "http://www.azurefashion.com/products/cigarette-pants/BC7-Grey", "images": ["http://www.azurefashion.com/system/product_images/774/page_ss/P%20BC7%20Grey%20FF.jpg?1411827241", "http://www.azurefashion.com/system/product_images/775/page_ss/P%20bC7%20grey%20F.jpg?1411827326", "http://www.azurefashion.com/system/product_images/776/page_ss/P%20bc7%20grey%20back.jpg?1411827392"], "category": "PRODUCTS", "description": "Our classic cigarette pants in a sophisticated grey drill fabric.Regular Wash, Dry in Shade Inside Out"},
{"actual_price": "1590.0", "sku": "BC7-AG", "store_id": "597c264770adb9862baaa16a", "discounted_price": "1590.0", "gender": "female", "created_at": "2017-07-31 13:59:49", "name": "Cigarette Pants", "url": "http://www.azurefashion.com/products/cigarette-pants-1/BC7-AG", "images": ["http://www.azurefashion.com/system/product_images/777/page_ss/P%20Army%20Pant%20F.jpg?1411833926", "http://www.azurefashion.com/system/product_images/778/page_ss/P%20Army%20Peg%201.jpg?1411834020", "http://www.azurefashion.com/system/product_images/779/page_ss/P%20Army%20Pant%20B.jpg?1411834088"], "category": "PRODUCTS", "description": "Our Classic Cigarette Pants in a stylish army green colorRegular Wash, Hang Dry in Shade Inside Out"},
{"actual_price": "990.0", "sku": "BC-10Chev", "store_id": "597c264770adb9862baaa16a", "discounted_price": "990.0", "gender": "female", "created_at": "2017-07-31 13:59:51", "name": "Market Pants", "url": "http://www.azurefashion.com/products/market-pants-2/BC-10Chev", "images": ["http://www.azurefashion.com/system/product_images/790/page_ss/P%20Chevron%20Pant%20F.jpg?1411837455", "http://www.azurefashion.com/system/product_images/791/page_ss/P%20Chevron%20Pant%20S.jpg?1411837526", "http://www.azurefashion.com/system/product_images/792/page_ss/P%20Chevron%20Pant%20B.jpg?1411837607"], "category": "PRODUCTS", "description": "Comfort and Style! \u00a0Printed palazzos with a comfortable, wide elastic waistband. Pairs beautifully with slim fit T-shirts, tunics, or even kurtis100% CottonMachine Wash, Line Dry Inside Out"},
{"actual_price": "1690.0", "sku": "BP11Blk", "store_id": "597c264770adb9862baaa16a", "discounted_price": "1690.0", "gender": "female", "created_at": "2017-07-31 13:59:54", "name": "Kathy Pants", "url": "http://www.azurefashion.com/products/kathy-pants-3/BP11Blk", "images": ["http://www.azurefashion.com/system/product_images/797/page_ss/P%20Kathy%20Blk%20F.jpg?1411839026", "http://www.azurefashion.com/system/product_images/798/page_ss/P%20Kathy%20Blk%20B.jpg?1411839085"], "category": "PRODUCTS", "description": "Flat Front, Wide Leg Palazzos. \u00a0Incredibly stylish and look superb with a slim fitted tucked in top or with a longer tunic/ kurti type top. \u00a0Elastic back for a perfect fit. \u00a0Hidden side zip.Regular Wash, Line Dry in the Shade"},
{"actual_price": "1590.0", "sku": "BC7-CB", "store_id": "597c264770adb9862baaa16a", "discounted_price": "1590.0", "gender": "female", "created_at": "2017-07-31 14:00:00", "name": "Classic Brunch Pants", "url": "http://www.azurefashion.com/products/classic-brunch-pants-2/BC7-CB", "images": [], "category": "PRODUCTS", "description": "Our brunch pants have been a hit with our customers for years! \u00a0Great fit, perfect rise, and cotton lycra fabric with just the right amount of stretch! \u00a0Like a potato chip - you won't be able to stop at just one! \u00a0Try once color... we're sure you'll be back for more!Cotton-LycraGentle Wash, line Dry Inside Out"},
{"actual_price": "1590.0", "sku": "BC-7WT", "store_id": "597c264770adb9862baaa16a", "discounted_price": "1590.0", "gender": "female", "created_at": "2017-07-31 14:00:02", "name": "Crop Cigarette Pants", "url": "http://www.azurefashion.com/products/crop-cigarette-pants/BC-7WT", "images": ["http://www.azurefashion.com/system/product_images/721/page_ss/1_BC7WhiteFrnt.jpg?1399277072", "http://www.azurefashion.com/system/product_images/722/page_ss/1_BC7WhiteBack.jpg?1399277146"], "category": "PRODUCTS", "description": "Classic slim fit white pants. \u00a0No see-through ribbed fabric. \u00a0A touch of lycra for comfortRegular Wash and Dry; do not wash with colored fabricsCotton-Lycra"},
{"actual_price": "1890.0", "sku": "BC-8T", "store_id": "597c264770adb9862baaa16a", "discounted_price": "1890.0", "gender": "female", "created_at": "2017-07-31 14:00:05", "name": "Button Leg Pant", "url": "http://www.azurefashion.com/products/button-leg-pant/BC-8T", "images": ["http://www.azurefashion.com/system/product_images/723/page_ss/1_BC8front.jpg?1399374710", "http://www.azurefashion.com/system/product_images/724/page_ss/1_BC8Side.jpg?1399374744", "http://www.azurefashion.com/system/product_images/725/page_ss/1_BC8tanbk.jpg?1399374800"], "category": "PRODUCTS", "description": "Stylish slim fit button leg pant. \u00a0Made of a cotton lycra ribbed fabric.Cotton-LycraRegular Wash, Line Dry"},
{"actual_price": "1690.0", "sku": "BC-9O", "store_id": "597c264770adb9862baaa16a", "discounted_price": "1690.0", "gender": "female", "created_at": "2017-07-31 14:00:09", "name": "Crop Straight Leg Pant", "url": "http://www.azurefashion.com/products/crop-straight-leg-pant/BC-9O", "images": ["http://www.azurefashion.com/system/product_images/726/page_ss/2_BC9Oliveback.jpg?1399379436", "http://www.azurefashion.com/system/product_images/727/page_ss/2_BC9Olivefront.jpg?1399379475"], "category": "PRODUCTS", "description": "Classic summer pants. \u00a0Slim through the thigh, but a slightly wider leg opening than our cigarette pants - for a more casual, summery look.Cotton-LycraRegular Wash"}
]